"source","target"
"Autocomplete","സ്വയംപൂർത്തീകരണം"
"Connectivity","സമ്പർക്കനില"
"Device","ഉപകരണം"
"Display","കാട്ടുക, കാണിക്കുക, പ്രദർശനം"
"Enable","പ്രാപ്തമാക്കുക, സജീവമാക്കുക"
"Favorites","ഇഷ്ടപ്പട്ടിക"
"History","മുൻസമ്പർക്കം, പൂർവ്വയിടപെടൽ"
"Icon","ചിഹ്നം, പ്രതീകം"
"Intro screen","ആമുഖം"
"KISS","കിസ്സ്"
"Link","കണ്ണി"
"List","പട്ടിക, നിര, നാമാവലി"
"Message","സന്ദേശം, സന്ദേശം അയക്കുക"
"Mode","വിധം, വ്യവസ്ഥ"
"Provider","ദാതാവ്"
"Result","ഫലം"
"Search","തിരച്ചിൽ"
"Search Bar","തിരച്ചിൽകൂട്"
"Settings","ക്രമീകരണങ്ങൾ, സജ്ജീകരണങ്ങൾ"
"Shortcut","കുറുക്കുവഴി"
"Status bar","സ്‌ഥിതിവിവരപ്പട്ടിക"
"Suggestion","സൂചന, അഭിപ്രായം"
"Tag","മുദ്ര, ഉപനാമം"
"Theme","ഛായ"
"Transparent","തെളിഞ്ഞ"
"Wallpaper","ചുവർചിത്രം, ചുവർകടലാസ്"
"Widget","വിഡ്ജറ്റ്"
